{
  "items": [
    {
      "external_urls": {
        "spotify": "https://open.spotify.com/artist/1OAjDaKgg00KCUYqDe68un"
      },
      "followers": {
        "href": null,
        "total": 282728
      },
      "genres": [
        "eurodance",
        "europop",
        "italo dance"
      ],
      "href": "https://api.spotify.com/v1/artists/1OAjDaKgg00KCUYqDe68un",
      "id": "1OAjDaKgg00KCUYqDe68un",
      "images": [
        {
          "height": 640,
          "url": "https://i.scdn.co/image/9db1326dca4965b2446bcc05975964e982aafbd9",
          "width": 640
        },
        {
          "height": 320,
          "url": "https://i.scdn.co/image/8b48ec02e4212de84af39f175703516fa475c24c",
          "width": 320
        },
        {
          "height": 160,
          "url": "https://i.scdn.co/image/41deb8bffb298535fba3af19b83f44b10e61c14d",
          "width": 160
        }
      ],
      "name": "Gigi D'Agostino",
      "popularity": 77,
      "type": "artist",
      "uri": "spotify:artist:1OAjDaKgg00KCUYqDe68un"
    },
    {
      "external_urls": {
        "spotify": "https://open.spotify.com/artist/53XhwfbYqKCa1cC15pYq2q"
      },
      "followers": {
        "href": null,
        "total": 17353665
      },
      "genres": [
        "modern rock",
        "rock"
      ],
      "href": "https://api.spotify.com/v1/artists/53XhwfbYqKCa1cC15pYq2q",
      "id": "53XhwfbYqKCa1cC15pYq2q",
      "images": [
        {
          "height": 640,
          "url": "https://i.scdn.co/image/01b36ca0f45f2f15117022a2754287a6ca1acdcc",
          "width": 640
        },
        {
          "height": 320,
          "url": "https://i.scdn.co/image/ff8d83627cb2a80d4c1fa36fd80a193ca34b7a50",
          "width": 320
        },
        {
          "height": 160,
          "url": "https://i.scdn.co/image/1cdf5ce3cf329ae433bfa76e88dadeb06653fda9",
          "width": 160
        }
      ],
      "name": "Imagine Dragons",
      "popularity": 91,
      "type": "artist",
      "uri": "spotify:artist:53XhwfbYqKCa1cC15pYq2q"
    },
    {
      "external_urls": {
        "spotify": "https://open.spotify.com/artist/4l0PmbNvFq3m5JaUuAPbcB"
      },
      "followers": {
        "href": null,
        "total": 479807
      },
      "genres": [
        "italian arena pop",
        "italian hip hop",
        "italian pop",
        "italian reggae"
      ],
      "href": "https://api.spotify.com/v1/artists/4l0PmbNvFq3m5JaUuAPbcB",
      "id": "4l0PmbNvFq3m5JaUuAPbcB",
      "images": [
        {
          "height": 640,
          "url": "https://i.scdn.co/image/bb5c481d18fc5600c8ba121d90ef224b10408ccd",
          "width": 640
        },
        {
          "height": 320,
          "url": "https://i.scdn.co/image/a7ab6efd4bbebeb0cdc95478034bb00d05d087c9",
          "width": 320
        },
        {
          "height": 160,
          "url": "https://i.scdn.co/image/41de6fc184cfda60f9a758d0c90c195f5f3c71a0",
          "width": 160
        }
      ],
      "name": "Caparezza",
      "popularity": 61,
      "type": "artist",
      "uri": "spotify:artist:4l0PmbNvFq3m5JaUuAPbcB"
    },
    {
      "external_urls": {
        "spotify": "https://open.spotify.com/artist/4k1ELeJKT1ISyDv8JivPpB"
      },
      "followers": {
        "href": null,
        "total": 994970
      },
      "genres": [
        "big beat",
        "breakbeat",
        "electronic",
        "hardcore techno"
      ],
      "href": "https://api.spotify.com/v1/artists/4k1ELeJKT1ISyDv8JivPpB",
      "id": "4k1ELeJKT1ISyDv8JivPpB",
      "images": [
        {
          "height": 640,
          "url": "https://i.scdn.co/image/21403e7f6ad44360abf0ee5f6349a71a7fd4eb4f",
          "width": 640
        },
        {
          "height": 320,
          "url": "https://i.scdn.co/image/824d7eaca66c731ef7e4dc069ad13c762c53e953",
          "width": 320
        },
        {
          "height": 160,
          "url": "https://i.scdn.co/image/410213c2c960421bf8897bd2c953c595a150b419",
          "width": 160
        }
      ],
      "name": "The Prodigy",
      "popularity": 74,
      "type": "artist",
      "uri": "spotify:artist:4k1ELeJKT1ISyDv8JivPpB"
    },
    {
      "external_urls": {
        "spotify": "https://open.spotify.com/artist/64rxQRJsLgZwHHyWKB8fiF"
      },
      "followers": {
        "href": null,
        "total": 143520
      },
      "genres": [
        "bubblegum dance",
        "eurodance",
        "europop",
        "italian pop",
        "italo dance"
      ],
      "href": "https://api.spotify.com/v1/artists/64rxQRJsLgZwHHyWKB8fiF",
      "id": "64rxQRJsLgZwHHyWKB8fiF",
      "images": [
        {
          "height": 640,
          "url": "https://i.scdn.co/image/db47e25f7d553170c12dd396101754c7464113df",
          "width": 640
        },
        {
          "height": 320,
          "url": "https://i.scdn.co/image/7ee36255358f909e6d0d7b1935182bc21da28a06",
          "width": 320
        },
        {
          "height": 160,
          "url": "https://i.scdn.co/image/9662a93e7125995f79d60cb4a41358434379ae63",
          "width": 160
        }
      ],
      "name": "Eiffel 65",
      "popularity": 64,
      "type": "artist",
      "uri": "spotify:artist:64rxQRJsLgZwHHyWKB8fiF"
    },
    {
      "external_urls": {
        "spotify": "https://open.spotify.com/artist/6XZYAWJLL8UIbxAqjKj3cg"
      },
      "followers": {
        "href": null,
        "total": 212181
      },
      "genres": [
        "electropop",
        "indie r&b",
        "vapor soul"
      ],
      "href": "https://api.spotify.com/v1/artists/6XZYAWJLL8UIbxAqjKj3cg",
      "id": "6XZYAWJLL8UIbxAqjKj3cg",
      "images": [
        {
          "height": 640,
          "url": "https://i.scdn.co/image/71c1e96ea02c4748c22a5a0fcedfbe7ea6eac112",
          "width": 640
        },
        {
          "height": 320,
          "url": "https://i.scdn.co/image/c890917962da6299d03a72dd8465bcdd402b5751",
          "width": 320
        },
        {
          "height": 160,
          "url": "https://i.scdn.co/image/b32514a06036c757210af9cecbd5f1d05cd87dc8",
          "width": 160
        }
      ],
      "name": "SOHN",
      "popularity": 56,
      "type": "artist",
      "uri": "spotify:artist:6XZYAWJLL8UIbxAqjKj3cg"
    },
    {
      "external_urls": {
        "spotify": "https://open.spotify.com/artist/7DzxfMQ3VNYR5vw2UFjzSK"
      },
      "followers": {
        "href": null,
        "total": 152964
      },
      "genres": [
        "italian alternative",
        "italian arena pop",
        "italian pop"
      ],
      "href": "https://api.spotify.com/v1/artists/7DzxfMQ3VNYR5vw2UFjzSK",
      "id": "7DzxfMQ3VNYR5vw2UFjzSK",
      "images": [
        {
          "height": 640,
          "url": "https://i.scdn.co/image/b063de919e72914b10f608d60696438a7078daa6",
          "width": 640
        },
        {
          "height": 320,
          "url": "https://i.scdn.co/image/772c61c567edb6a2a8d9c78ba6c5f7b9039f24cd",
          "width": 320
        },
        {
          "height": 160,
          "url": "https://i.scdn.co/image/4ce7136a5672edd854d0822bdf860faff173e48b",
          "width": 160
        }
      ],
      "name": "Subsonica",
      "popularity": 54,
      "type": "artist",
      "uri": "spotify:artist:7DzxfMQ3VNYR5vw2UFjzSK"
    },
    {
      "external_urls": {
        "spotify": "https://open.spotify.com/artist/4Y7tXHSEejGu1vQ9bwDdXW"
      },
      "followers": {
        "href": null,
        "total": 572644
      },
      "genres": [
        "big beat",
        "disco house",
        "electronic"
      ],
      "href": "https://api.spotify.com/v1/artists/4Y7tXHSEejGu1vQ9bwDdXW",
      "id": "4Y7tXHSEejGu1vQ9bwDdXW",
      "images": [
        {
          "height": 640,
          "url": "https://i.scdn.co/image/32376373e766c2676521d221624642a1708debfc",
          "width": 640
        },
        {
          "height": 320,
          "url": "https://i.scdn.co/image/b59a91f4ddabf444586b6064b16cd759d3b1bf11",
          "width": 320
        },
        {
          "height": 160,
          "url": "https://i.scdn.co/image/3331c5ed04432bfb5cb92a77d97f59ac1fa15dfd",
          "width": 160
        }
      ],
      "name": "Fatboy Slim",
      "popularity": 67,
      "type": "artist",
      "uri": "spotify:artist:4Y7tXHSEejGu1vQ9bwDdXW"
    },
    {
      "external_urls": {
        "spotify": "https://open.spotify.com/artist/5j4HeCoUlzhfWtjAfM1acR"
      },
      "followers": {
        "href": null,
        "total": 1211808
      },
      "genres": [
        "belgian pop"
      ],
      "href": "https://api.spotify.com/v1/artists/5j4HeCoUlzhfWtjAfM1acR",
      "id": "5j4HeCoUlzhfWtjAfM1acR",
      "images": [
        {
          "height": 640,
          "url": "https://i.scdn.co/image/dc0dc4e1de5824c04a0fbab5c9999d56936e8072",
          "width": 640
        },
        {
          "height": 320,
          "url": "https://i.scdn.co/image/4a0c1d74ee44de21acc8bb9ef51b116ca8d92dc0",
          "width": 320
        },
        {
          "height": 160,
          "url": "https://i.scdn.co/image/75e2428598aa15e040c7a783629402b2f103e9ee",
          "width": 160
        }
      ],
      "name": "Stromae",
      "popularity": 70,
      "type": "artist",
      "uri": "spotify:artist:5j4HeCoUlzhfWtjAfM1acR"
    },
    {
      "external_urls": {
        "spotify": "https://open.spotify.com/artist/1yxSLGMDHlW21z4YXirZDS"
      },
      "followers": {
        "href": null,
        "total": 3306598
      },
      "genres": [
        "dance pop",
        "pop",
        "pop rap"
      ],
      "href": "https://api.spotify.com/v1/artists/1yxSLGMDHlW21z4YXirZDS",
      "id": "1yxSLGMDHlW21z4YXirZDS",
      "images": [
        {
          "height": 640,
          "url": "https://i.scdn.co/image/8187a0a248d8d17c6fbec79f8fdc2aa87a953369",
          "width": 640
        },
        {
          "height": 320,
          "url": "https://i.scdn.co/image/8920b74733f94dfe28da8cb06dbfe0b5244f0beb",
          "width": 320
        },
        {
          "height": 160,
          "url": "https://i.scdn.co/image/d9b78a13380b424d5da3ed679e6004741c48b9e5",
          "width": 160
        }
      ],
      "name": "The Black Eyed Peas",
      "popularity": 78,
      "type": "artist",
      "uri": "spotify:artist:1yxSLGMDHlW21z4YXirZDS"
    },
    {
      "external_urls": {
        "spotify": "https://open.spotify.com/artist/1vKXVGgIDP1XXZX4Tehjtn"
      },
      "followers": {
        "href": null,
        "total": 148379
      },
      "genres": [
        "italian arena pop",
        "italian hip hop",
        "italian pop"
      ],
      "href": "https://api.spotify.com/v1/artists/1vKXVGgIDP1XXZX4Tehjtn",
      "id": "1vKXVGgIDP1XXZX4Tehjtn",
      "images": [
        {
          "height": 640,
          "url": "https://i.scdn.co/image/800331e32ca47e6444e6cf92e2b8456339673d9f",
          "width": 640
        },
        {
          "height": 320,
          "url": "https://i.scdn.co/image/66b969ab70964cfea456409ca71a10d156f2c30e",
          "width": 320
        },
        {
          "height": 160,
          "url": "https://i.scdn.co/image/0e91d7ca73cde82a25cd482c311f0519be0447a8",
          "width": 160
        }
      ],
      "name": "Il Pagante",
      "popularity": 63,
      "type": "artist",
      "uri": "spotify:artist:1vKXVGgIDP1XXZX4Tehjtn"
    },
    {
      "external_urls": {
        "spotify": "https://open.spotify.com/artist/1bj5GrcLom5gZFF5t949Xl"
      },
      "followers": {
        "href": null,
        "total": 956561
      },
      "genres": [
        "big room",
        "dance pop",
        "disco house",
        "edm",
        "electro house",
        "filter house",
        "house",
        "pop",
        "pop rap",
        "tropical house",
        "vocal house"
      ],
      "href": "https://api.spotify.com/v1/artists/1bj5GrcLom5gZFF5t949Xl",
      "id": "1bj5GrcLom5gZFF5t949Xl",
      "images": [
        {
          "height": 640,
          "url": "https://i.scdn.co/image/00329fd8095042ce6de758f53e5a4303dd1603aa",
          "width": 640
        },
        {
          "height": 320,
          "url": "https://i.scdn.co/image/44a4480d2d4d6ff9c0deece87ef30a634a1ff959",
          "width": 320
        },
        {
          "height": 160,
          "url": "https://i.scdn.co/image/016250efbbc62a926b492957e51a0238b3ea4e3c",
          "width": 160
        }
      ],
      "name": "Martin Solveig",
      "popularity": 69,
      "type": "artist",
      "uri": "spotify:artist:1bj5GrcLom5gZFF5t949Xl"
    },
    {
      "external_urls": {
        "spotify": "https://open.spotify.com/artist/7gRhy3MIPHQo5CXYfWaw9I"
      },
      "followers": {
        "href": null,
        "total": 475227
      },
      "genres": [
        "bmore",
        "dance pop",
        "escape room",
        "hip house",
        "hip pop",
        "lgbtq+ hip hop",
        "new rave",
        "pop",
        "r&b",
        "strut",
        "trap queen",
        "urban contemporary"
      ],
      "href": "https://api.spotify.com/v1/artists/7gRhy3MIPHQo5CXYfWaw9I",
      "id": "7gRhy3MIPHQo5CXYfWaw9I",
      "images": [
        {
          "height": 749,
          "url": "https://i.scdn.co/image/d08b993548a00a5a535e20c9c2aff7b6287dfb1e",
          "width": 1000
        },
        {
          "height": 480,
          "url": "https://i.scdn.co/image/27f49fc753f618acfd40da8c747e9624d25c2d65",
          "width": 640
        },
        {
          "height": 150,
          "url": "https://i.scdn.co/image/61a6df6befdb435d3d4722fa63a5cfc4fb06f8f5",
          "width": 200
        },
        {
          "height": 48,
          "url": "https://i.scdn.co/image/5fd8dcca2d7c58702eb65df34d51c78b33619923",
          "width": 64
        }
      ],
      "name": "Azealia Banks",
      "popularity": 61,
      "type": "artist",
      "uri": "spotify:artist:7gRhy3MIPHQo5CXYfWaw9I"
    },
    {
      "external_urls": {
        "spotify": "https://open.spotify.com/artist/7582dstv99hhZhryUNCn3u"
      },
      "followers": {
        "href": null,
        "total": 62038
      },
      "genres": [
        "italian alternative",
        "italian hip hop",
        "italian underground hip hop"
      ],
      "href": "https://api.spotify.com/v1/artists/7582dstv99hhZhryUNCn3u",
      "id": "7582dstv99hhZhryUNCn3u",
      "images": [
        {
          "height": 640,
          "url": "https://i.scdn.co/image/b8534d2b5c01183851ec8df6af8ae16d321c0a89",
          "width": 640
        },
        {
          "height": 320,
          "url": "https://i.scdn.co/image/9fd037bb950ed1c148745ca2fa10baa2669c61cc",
          "width": 320
        },
        {
          "height": 160,
          "url": "https://i.scdn.co/image/1c8fde6d786737e3bde1a53b68366194cd6c0f88",
          "width": 160
        }
      ],
      "name": "Colle Der Fomento",
      "popularity": 50,
      "type": "artist",
      "uri": "spotify:artist:7582dstv99hhZhryUNCn3u"
    },
    {
      "external_urls": {
        "spotify": "https://open.spotify.com/artist/0dmPX6ovclgOy8WWJaFEUU"
      },
      "followers": {
        "href": null,
        "total": 339783
      },
      "genres": [
        "art pop",
        "art rock",
        "dance rock",
        "electro",
        "electronic",
        "german techno",
        "krautrock",
        "new romantic",
        "new wave",
        "synthpop"
      ],
      "href": "https://api.spotify.com/v1/artists/0dmPX6ovclgOy8WWJaFEUU",
      "id": "0dmPX6ovclgOy8WWJaFEUU",
      "images": [
        {
          "height": 1232,
          "url": "https://i.scdn.co/image/1142c1fcfe958a3b0e3000c08840dee5ed0949b2",
          "width": 1000
        },
        {
          "height": 789,
          "url": "https://i.scdn.co/image/5fe2c9486ee091aaefe56570969583e20eae3485",
          "width": 640
        },
        {
          "height": 246,
          "url": "https://i.scdn.co/image/5bb59442fa7fa02e059172234c58890b5912d5f9",
          "width": 200
        },
        {
          "height": 79,
          "url": "https://i.scdn.co/image/47522982b13696beb7ae6ec230f638e1e7597e62",
          "width": 64
        }
      ],
      "name": "Kraftwerk",
      "popularity": 56,
      "type": "artist",
      "uri": "spotify:artist:0dmPX6ovclgOy8WWJaFEUU"
    },
    {
      "external_urls": {
        "spotify": "https://open.spotify.com/artist/2jYMYP2SVifgmzNRQJx3SJ"
      },
      "followers": {
        "href": null,
        "total": 131600
      },
      "genres": [
        "alternative dance",
        "electronic",
        "indietronica",
        "microhouse",
        "minimal techno",
        "new rave",
        "trip hop"
      ],
      "href": "https://api.spotify.com/v1/artists/2jYMYP2SVifgmzNRQJx3SJ",
      "id": "2jYMYP2SVifgmzNRQJx3SJ",
      "images": [
        {
          "height": 640,
          "url": "https://i.scdn.co/image/1bf7a85bcc0c047d8914a2524ed3e35772c6f69b",
          "width": 640
        },
        {
          "height": 320,
          "url": "https://i.scdn.co/image/b68ceddf4a4d87b4a8c7b0ee8fad9edcec057f3a",
          "width": 320
        },
        {
          "height": 160,
          "url": "https://i.scdn.co/image/2df6764205e5d2637e4749e3a50d41c0474b72a8",
          "width": 160
        }
      ],
      "name": "Modeselektor",
      "popularity": 55,
      "type": "artist",
      "uri": "spotify:artist:2jYMYP2SVifgmzNRQJx3SJ"
    },
    {
      "external_urls": {
        "spotify": "https://open.spotify.com/artist/0dE9ooTNz8iEKIKItRI66t"
      },
      "followers": {
        "href": null,
        "total": 288804
      },
      "genres": [
        "italian progressive rock",
        "operatic pop"
      ],
      "href": "https://api.spotify.com/v1/artists/0dE9ooTNz8iEKIKItRI66t",
      "id": "0dE9ooTNz8iEKIKItRI66t",
      "images": [
        {
          "height": 640,
          "url": "https://i.scdn.co/image/b8efbcc9c6f8208cca2fc0f534f1831ceab329ea",
          "width": 640
        },
        {
          "height": 320,
          "url": "https://i.scdn.co/image/b9cbcf2393e410f0a049c7d6cc61796436512686",
          "width": 320
        },
        {
          "height": 160,
          "url": "https://i.scdn.co/image/3599ca568db85d0f79d603b1a188cd8a134392e7",
          "width": 160
        }
      ],
      "name": "Il Volo",
      "popularity": 62,
      "type": "artist",
      "uri": "spotify:artist:0dE9ooTNz8iEKIKItRI66t"
    },
    {
      "external_urls": {
        "spotify": "https://open.spotify.com/artist/0pSx3asj3usz5PRt8COo0E"
      },
      "followers": {
        "href": null,
        "total": 37930
      },
      "genres": [
        "italian alternative",
        "italian hip hop",
        "trap italiana"
      ],
      "href": "https://api.spotify.com/v1/artists/0pSx3asj3usz5PRt8COo0E",
      "id": "0pSx3asj3usz5PRt8COo0E",
      "images": [
        {
          "height": 640,
          "url": "https://i.scdn.co/image/20752471a45b4c7608e71b8f326402ff3857e938",
          "width": 640
        },
        {
          "height": 320,
          "url": "https://i.scdn.co/image/8e307cb11e35d26b7dddcd3ffafed093abbca7a7",
          "width": 320
        },
        {
          "height": 160,
          "url": "https://i.scdn.co/image/78ef01299f3ba0d980d5abacb19d8c184320dede",
          "width": 160
        }
      ],
      "name": "Ketama126",
      "popularity": 61,
      "type": "artist",
      "uri": "spotify:artist:0pSx3asj3usz5PRt8COo0E"
    },
    {
      "external_urls": {
        "spotify": "https://open.spotify.com/artist/6bMul6rmRS03x38tWKYifO"
      },
      "followers": {
        "href": null,
        "total": 314758
      },
      "genres": [
        "classic italian pop",
        "italian arena pop",
        "italian hip hop",
        "italian pop"
      ],
      "href": "https://api.spotify.com/v1/artists/6bMul6rmRS03x38tWKYifO",
      "id": "6bMul6rmRS03x38tWKYifO",
      "images": [
        {
          "height": 640,
          "url": "https://i.scdn.co/image/5f92c468b07c9dcfd228dc9e51cfafd834ced317",
          "width": 640
        },
        {
          "height": 300,
          "url": "https://i.scdn.co/image/48a3cddc961c5ea09728ae0c9f2486ac6f2a9082",
          "width": 300
        },
        {
          "height": 64,
          "url": "https://i.scdn.co/image/f4b7905c61784200ae0f535f0f671a4dd61b54e3",
          "width": 64
        }
      ],
      "name": "883",
      "popularity": 60,
      "type": "artist",
      "uri": "spotify:artist:6bMul6rmRS03x38tWKYifO"
    },
    {
      "external_urls": {
        "spotify": "https://open.spotify.com/artist/7pbBSvkFKdTKLCJl5G1jSV"
      },
      "followers": {
        "href": null,
        "total": 11488
      },
      "genres": [
        "italo dance"
      ],
      "href": "https://api.spotify.com/v1/artists/7pbBSvkFKdTKLCJl5G1jSV",
      "id": "7pbBSvkFKdTKLCJl5G1jSV",
      "images": [
        {
          "height": 640,
          "url": "https://i.scdn.co/image/b5b6655557a1d795810b5b2f82c5379c66ae2eac",
          "width": 640
        },
        {
          "height": 300,
          "url": "https://i.scdn.co/image/0436da48194af31b960d34358a6882a57b98d4f2",
          "width": 300
        },
        {
          "height": 64,
          "url": "https://i.scdn.co/image/4d87ee01c2858e6b4cc005afb3835a7d5195e22f",
          "width": 64
        }
      ],
      "name": "Paps'n'Skar",
      "popularity": 49,
      "type": "artist",
      "uri": "spotify:artist:7pbBSvkFKdTKLCJl5G1jSV"
    }
  ],
  "total": 50,
  "limit": 20,
  "offset": 0,
  "href": "https://api.spotify.com/v1/me/top/artists",
  "previous": null,
  "next": "https://api.spotify.com/v1/me/top/artists?limit=20&offset=20"
}
