{
  "items": [
    {
      "external_urls": {
        "spotify": "https://open.spotify.com/artist/4l0PmbNvFq3m5JaUuAPbcB"
      },
      "followers": {
        "href": null,
        "total": 479807
      },
      "genres": [
        "italian arena pop",
        "italian hip hop",
        "italian pop",
        "italian reggae"
      ],
      "href": "https://api.spotify.com/v1/artists/4l0PmbNvFq3m5JaUuAPbcB",
      "id": "4l0PmbNvFq3m5JaUuAPbcB",
      "images": [
        {
          "height": 640,
          "url": "https://i.scdn.co/image/bb5c481d18fc5600c8ba121d90ef224b10408ccd",
          "width": 640
        },
        {
          "height": 320,
          "url": "https://i.scdn.co/image/a7ab6efd4bbebeb0cdc95478034bb00d05d087c9",
          "width": 320
        },
        {
          "height": 160,
          "url": "https://i.scdn.co/image/41de6fc184cfda60f9a758d0c90c195f5f3c71a0",
          "width": 160
        }
      ],
      "name": "Caparezza",
      "popularity": 61,
      "type": "artist",
      "uri": "spotify:artist:4l0PmbNvFq3m5JaUuAPbcB"
    },
    {
      "external_urls": {
        "spotify": "https://open.spotify.com/artist/4k1ELeJKT1ISyDv8JivPpB"
      },
      "followers": {
        "href": null,
        "total": 994970
      },
      "genres": [
        "big beat",
        "breakbeat",
        "electronic",
        "hardcore techno"
      ],
      "href": "https://api.spotify.com/v1/artists/4k1ELeJKT1ISyDv8JivPpB",
      "id": "4k1ELeJKT1ISyDv8JivPpB",
      "images": [
        {
          "height": 640,
          "url": "https://i.scdn.co/image/21403e7f6ad44360abf0ee5f6349a71a7fd4eb4f",
          "width": 640
        },
        {
          "height": 320,
          "url": "https://i.scdn.co/image/824d7eaca66c731ef7e4dc069ad13c762c53e953",
          "width": 320
        },
        {
          "height": 160,
          "url": "https://i.scdn.co/image/410213c2c960421bf8897bd2c953c595a150b419",
          "width": 160
        }
      ],
      "name": "The Prodigy",
      "popularity": 74,
      "type": "artist",
      "uri": "spotify:artist:4k1ELeJKT1ISyDv8JivPpB"
    },
    {
      "external_urls": {
        "spotify": "https://open.spotify.com/artist/6XZYAWJLL8UIbxAqjKj3cg"
      },
      "followers": {
        "href": null,
        "total": 212181
      },
      "genres": [
        "electropop",
        "indie r&b",
        "vapor soul"
      ],
      "href": "https://api.spotify.com/v1/artists/6XZYAWJLL8UIbxAqjKj3cg",
      "id": "6XZYAWJLL8UIbxAqjKj3cg",
      "images": [
        {
          "height": 640,
          "url": "https://i.scdn.co/image/71c1e96ea02c4748c22a5a0fcedfbe7ea6eac112",
          "width": 640
        },
        {
          "height": 320,
          "url": "https://i.scdn.co/image/c890917962da6299d03a72dd8465bcdd402b5751",
          "width": 320
        },
        {
          "height": 160,
          "url": "https://i.scdn.co/image/b32514a06036c757210af9cecbd5f1d05cd87dc8",
          "width": 160
        }
      ],
      "name": "SOHN",
      "popularity": 56,
      "type": "artist",
      "uri": "spotify:artist:6XZYAWJLL8UIbxAqjKj3cg"
    },
    {
      "external_urls": {
        "spotify": "https://open.spotify.com/artist/0dE9ooTNz8iEKIKItRI66t"
      },
      "followers": {
        "href": null,
        "total": 288804
      },
      "genres": [
        "italian progressive rock",
        "operatic pop"
      ],
      "href": "https://api.spotify.com/v1/artists/0dE9ooTNz8iEKIKItRI66t",
      "id": "0dE9ooTNz8iEKIKItRI66t",
      "images": [
        {
          "height": 640,
          "url": "https://i.scdn.co/image/b8efbcc9c6f8208cca2fc0f534f1831ceab329ea",
          "width": 640
        },
        {
          "height": 320,
          "url": "https://i.scdn.co/image/b9cbcf2393e410f0a049c7d6cc61796436512686",
          "width": 320
        },
        {
          "height": 160,
          "url": "https://i.scdn.co/image/3599ca568db85d0f79d603b1a188cd8a134392e7",
          "width": 160
        }
      ],
      "name": "Il Volo",
      "popularity": 62,
      "type": "artist",
      "uri": "spotify:artist:0dE9ooTNz8iEKIKItRI66t"
    },
    {
      "external_urls": {
        "spotify": "https://open.spotify.com/artist/0pSx3asj3usz5PRt8COo0E"
      },
      "followers": {
        "href": null,
        "total": 37930
      },
      "genres": [
        "italian alternative",
        "italian hip hop",
        "trap italiana"
      ],
      "href": "https://api.spotify.com/v1/artists/0pSx3asj3usz5PRt8COo0E",
      "id": "0pSx3asj3usz5PRt8COo0E",
      "images": [
        {
          "height": 640,
          "url": "https://i.scdn.co/image/20752471a45b4c7608e71b8f326402ff3857e938",
          "width": 640
        },
        {
          "height": 320,
          "url": "https://i.scdn.co/image/8e307cb11e35d26b7dddcd3ffafed093abbca7a7",
          "width": 320
        },
        {
          "height": 160,
          "url": "https://i.scdn.co/image/78ef01299f3ba0d980d5abacb19d8c184320dede",
          "width": 160
        }
      ],
      "name": "Ketama126",
      "popularity": 61,
      "type": "artist",
      "uri": "spotify:artist:0pSx3asj3usz5PRt8COo0E"
    },
    {
      "external_urls": {
        "spotify": "https://open.spotify.com/artist/1oR9pQhucVTJyi5lH2Y2iT"
      },
      "followers": {
        "href": null,
        "total": 63971
      },
      "genres": [
        "future funk",
        "vaporwave"
      ],
      "href": "https://api.spotify.com/v1/artists/1oR9pQhucVTJyi5lH2Y2iT",
      "id": "1oR9pQhucVTJyi5lH2Y2iT",
      "images": [
        {
          "height": 640,
          "url": "https://i.scdn.co/image/8e58c55f0ea98f9424c6a77721f7150554602840",
          "width": 640
        },
        {
          "height": 320,
          "url": "https://i.scdn.co/image/815d0f83b76da2ce669405eb0398d8eb17b0d6a3",
          "width": 320
        },
        {
          "height": 160,
          "url": "https://i.scdn.co/image/878ff4d508b3d0553901174f0d3da8f84cd0b88e",
          "width": 160
        }
      ],
      "name": "Blank Banshee",
      "popularity": 48,
      "type": "artist",
      "uri": "spotify:artist:1oR9pQhucVTJyi5lH2Y2iT"
    },
    {
      "external_urls": {
        "spotify": "https://open.spotify.com/artist/4ABwY5eHGrrwcv13gdDe55"
      },
      "followers": {
        "href": null,
        "total": 30535
      },
      "genres": [
        "italian alternative"
      ],
      "href": "https://api.spotify.com/v1/artists/4ABwY5eHGrrwcv13gdDe55",
      "id": "4ABwY5eHGrrwcv13gdDe55",
      "images": [
        {
          "height": 640,
          "url": "https://i.scdn.co/image/d039ed65836d0b615e8f74cd9a2fcba2870420b2",
          "width": 640
        },
        {
          "height": 320,
          "url": "https://i.scdn.co/image/a283e1710078b6b1f7528a248937e65a1a213503",
          "width": 320
        },
        {
          "height": 160,
          "url": "https://i.scdn.co/image/eb260f84a0c6ad25a5e2a42abbf153788f0f6e60",
          "width": 160
        }
      ],
      "name": "Pop X",
      "popularity": 42,
      "type": "artist",
      "uri": "spotify:artist:4ABwY5eHGrrwcv13gdDe55"
    },
    {
      "external_urls": {
        "spotify": "https://open.spotify.com/artist/2zG5ycak5H5A12ypISC39F"
      },
      "followers": {
        "href": null,
        "total": 13688
      },
      "genres": [],
      "href": "https://api.spotify.com/v1/artists/2zG5ycak5H5A12ypISC39F",
      "id": "2zG5ycak5H5A12ypISC39F",
      "images": [
        {
          "height": 640,
          "url": "https://i.scdn.co/image/68dcc95a0fff0a3d8417ddc19ee0914f18293337",
          "width": 640
        },
        {
          "height": 320,
          "url": "https://i.scdn.co/image/8203ea3a9168eb1ed086cd749a8c0cb316381f6b",
          "width": 320
        },
        {
          "height": 160,
          "url": "https://i.scdn.co/image/8a62bd30010d73436d5b6bd06987f1adaa1cc82b",
          "width": 160
        }
      ],
      "name": "Immanuel Casto",
      "popularity": 35,
      "type": "artist",
      "uri": "spotify:artist:2zG5ycak5H5A12ypISC39F"
    },
    {
      "external_urls": {
        "spotify": "https://open.spotify.com/artist/4Y7tXHSEejGu1vQ9bwDdXW"
      },
      "followers": {
        "href": null,
        "total": 572644
      },
      "genres": [
        "big beat",
        "disco house",
        "electronic"
      ],
      "href": "https://api.spotify.com/v1/artists/4Y7tXHSEejGu1vQ9bwDdXW",
      "id": "4Y7tXHSEejGu1vQ9bwDdXW",
      "images": [
        {
          "height": 640,
          "url": "https://i.scdn.co/image/32376373e766c2676521d221624642a1708debfc",
          "width": 640
        },
        {
          "height": 320,
          "url": "https://i.scdn.co/image/b59a91f4ddabf444586b6064b16cd759d3b1bf11",
          "width": 320
        },
        {
          "height": 160,
          "url": "https://i.scdn.co/image/3331c5ed04432bfb5cb92a77d97f59ac1fa15dfd",
          "width": 160
        }
      ],
      "name": "Fatboy Slim",
      "popularity": 67,
      "type": "artist",
      "uri": "spotify:artist:4Y7tXHSEejGu1vQ9bwDdXW"
    },
    {
      "external_urls": {
        "spotify": "https://open.spotify.com/artist/1Cs0zKBU1kc0i8ypK3B9ai"
      },
      "followers": {
        "href": null,
        "total": 18042467
      },
      "genres": [
        "dance pop",
        "edm",
        "pop"
      ],
      "href": "https://api.spotify.com/v1/artists/1Cs0zKBU1kc0i8ypK3B9ai",
      "id": "1Cs0zKBU1kc0i8ypK3B9ai",
      "images": [
        {
          "height": 640,
          "url": "https://i.scdn.co/image/3a8476a71714e7718a41a1157c40f93abb8cc750",
          "width": 640
        },
        {
          "height": 320,
          "url": "https://i.scdn.co/image/65459b708c6f80c0ca6699b17e9882f9fcdaee13",
          "width": 320
        },
        {
          "height": 160,
          "url": "https://i.scdn.co/image/fb479a0807777ba16fe1e6c048f6097ad495ac14",
          "width": 160
        }
      ],
      "name": "David Guetta",
      "popularity": 90,
      "type": "artist",
      "uri": "spotify:artist:1Cs0zKBU1kc0i8ypK3B9ai"
    },
    {
      "external_urls": {
        "spotify": "https://open.spotify.com/artist/7CajNmpbOovFoOoasH2HaY"
      },
      "followers": {
        "href": null,
        "total": 15870049
      },
      "genres": [
        "edm",
        "electro house",
        "house",
        "pop",
        "progressive house"
      ],
      "href": "https://api.spotify.com/v1/artists/7CajNmpbOovFoOoasH2HaY",
      "id": "7CajNmpbOovFoOoasH2HaY",
      "images": [
        {
          "height": 640,
          "url": "https://i.scdn.co/image/1fd90cd274102d458ec3a9243ced32e659738133",
          "width": 640
        },
        {
          "height": 320,
          "url": "https://i.scdn.co/image/1a26780c2c7dac2c1a170b874997fad15e3d2449",
          "width": 320
        },
        {
          "height": 160,
          "url": "https://i.scdn.co/image/f7ed25ea825451b9b19b6d5ef4826778413768e2",
          "width": 160
        }
      ],
      "name": "Calvin Harris",
      "popularity": 90,
      "type": "artist",
      "uri": "spotify:artist:7CajNmpbOovFoOoasH2HaY"
    },
    {
      "external_urls": {
        "spotify": "https://open.spotify.com/artist/1IueXOQyABrMOprrzwQJWN"
      },
      "followers": {
        "href": null,
        "total": 756462
      },
      "genres": [
        "dance pop",
        "edm",
        "pop",
        "tropical house"
      ],
      "href": "https://api.spotify.com/v1/artists/1IueXOQyABrMOprrzwQJWN",
      "id": "1IueXOQyABrMOprrzwQJWN",
      "images": [
        {
          "height": 640,
          "url": "https://i.scdn.co/image/9d2261dfca328d3a79f21dced8fdf49b85077357",
          "width": 640
        },
        {
          "height": 320,
          "url": "https://i.scdn.co/image/097266056129c7fb2f15db635557dcb2b5dab003",
          "width": 320
        },
        {
          "height": 160,
          "url": "https://i.scdn.co/image/6932f845554db5f1ca32af0fcd00e490cb7f1818",
          "width": 160
        }
      ],
      "name": "Sigala",
      "popularity": 77,
      "type": "artist",
      "uri": "spotify:artist:1IueXOQyABrMOprrzwQJWN"
    },
    {
      "external_urls": {
        "spotify": "https://open.spotify.com/artist/1vCWHaC5f2uS3yhpwWbIA6"
      },
      "followers": {
        "href": null,
        "total": 12613180
      },
      "genres": [
        "big room",
        "dance pop",
        "edm",
        "pop"
      ],
      "href": "https://api.spotify.com/v1/artists/1vCWHaC5f2uS3yhpwWbIA6",
      "id": "1vCWHaC5f2uS3yhpwWbIA6",
      "images": [
        {
          "height": 640,
          "url": "https://i.scdn.co/image/81b19a403109c4fe528ee3972137127b85be9519",
          "width": 640
        },
        {
          "height": 320,
          "url": "https://i.scdn.co/image/9c0d8fa969a9f5db6ff860203d6880a125e501d2",
          "width": 320
        },
        {
          "height": 160,
          "url": "https://i.scdn.co/image/c55bc6f57b6bb297425c3ae694f92672dcf0e2c2",
          "width": 160
        }
      ],
      "name": "Avicii",
      "popularity": 84,
      "type": "artist",
      "uri": "spotify:artist:1vCWHaC5f2uS3yhpwWbIA6"
    },
    {
      "external_urls": {
        "spotify": "https://open.spotify.com/artist/64KEffDW9EtZ1y2vBYgq8T"
      },
      "followers": {
        "href": null,
        "total": 10285897
      },
      "genres": [
        "brostep",
        "egyptian pop",
        "progressive electro house"
      ],
      "href": "https://api.spotify.com/v1/artists/64KEffDW9EtZ1y2vBYgq8T",
      "id": "64KEffDW9EtZ1y2vBYgq8T",
      "images": [
        {
          "height": 640,
          "url": "https://i.scdn.co/image/65f40b9a99ebb96921d5366537cdff7d5661d914",
          "width": 640
        },
        {
          "height": 320,
          "url": "https://i.scdn.co/image/719dab7f27ba0793b4ca7c5672ecf56d3d88467b",
          "width": 320
        },
        {
          "height": 160,
          "url": "https://i.scdn.co/image/d390ea8d34e3066c927eca1a67a9e6ccb6e943a1",
          "width": 160
        }
      ],
      "name": "Marshmello",
      "popularity": 91,
      "type": "artist",
      "uri": "spotify:artist:64KEffDW9EtZ1y2vBYgq8T"
    },
    {
      "external_urls": {
        "spotify": "https://open.spotify.com/artist/7dc6hUwyuIhrZdh80eaCEE"
      },
      "followers": {
        "href": null,
        "total": 233324
      },
      "genres": [
        "big room",
        "deep big room",
        "disco house",
        "dutch house",
        "edm",
        "electro house",
        "house",
        "progressive electro house",
        "progressive house",
        "tropical house"
      ],
      "href": "https://api.spotify.com/v1/artists/7dc6hUwyuIhrZdh80eaCEE",
      "id": "7dc6hUwyuIhrZdh80eaCEE",
      "images": [
        {
          "height": 640,
          "url": "https://i.scdn.co/image/a1dea02378133cb70dcb01f6537d6c3b2cd5a95a",
          "width": 640
        },
        {
          "height": 320,
          "url": "https://i.scdn.co/image/14efdc88f9512054bd19065e234d8be4202f27a4",
          "width": 320
        },
        {
          "height": 160,
          "url": "https://i.scdn.co/image/a66bbfc321353670ed32d655e736571db5f91b98",
          "width": 160
        }
      ],
      "name": "Fedde Le Grand",
      "popularity": 65,
      "type": "artist",
      "uri": "spotify:artist:7dc6hUwyuIhrZdh80eaCEE"
    },
    {
      "external_urls": {
        "spotify": "https://open.spotify.com/artist/2jYMYP2SVifgmzNRQJx3SJ"
      },
      "followers": {
        "href": null,
        "total": 131600
      },
      "genres": [
        "alternative dance",
        "electronic",
        "indietronica",
        "microhouse",
        "minimal techno",
        "new rave",
        "trip hop"
      ],
      "href": "https://api.spotify.com/v1/artists/2jYMYP2SVifgmzNRQJx3SJ",
      "id": "2jYMYP2SVifgmzNRQJx3SJ",
      "images": [
        {
          "height": 640,
          "url": "https://i.scdn.co/image/1bf7a85bcc0c047d8914a2524ed3e35772c6f69b",
          "width": 640
        },
        {
          "height": 320,
          "url": "https://i.scdn.co/image/b68ceddf4a4d87b4a8c7b0ee8fad9edcec057f3a",
          "width": 320
        },
        {
          "height": 160,
          "url": "https://i.scdn.co/image/2df6764205e5d2637e4749e3a50d41c0474b72a8",
          "width": 160
        }
      ],
      "name": "Modeselektor",
      "popularity": 55,
      "type": "artist",
      "uri": "spotify:artist:2jYMYP2SVifgmzNRQJx3SJ"
    },
    {
      "external_urls": {
        "spotify": "https://open.spotify.com/artist/4YrKBkKSVeqDamzBPWVnSJ"
      },
      "followers": {
        "href": null,
        "total": 277991
      },
      "genres": [
        "alternative dance",
        "big beat",
        "dance pop",
        "disco house",
        "electronic",
        "new rave",
        "uk garage",
        "vocal house"
      ],
      "href": "https://api.spotify.com/v1/artists/4YrKBkKSVeqDamzBPWVnSJ",
      "id": "4YrKBkKSVeqDamzBPWVnSJ",
      "images": [
        {
          "height": 640,
          "url": "https://i.scdn.co/image/4c74994e83cacb4ee9b5fce6d6dcbe937b8642e6",
          "width": 640
        },
        {
          "height": 320,
          "url": "https://i.scdn.co/image/cc321e8b060586137cb70393bacb1a91336ff184",
          "width": 320
        },
        {
          "height": 160,
          "url": "https://i.scdn.co/image/2d8ab03079c4585ecbee3197c7777c18add79ff7",
          "width": 160
        }
      ],
      "name": "Basement Jaxx",
      "popularity": 61,
      "type": "artist",
      "uri": "spotify:artist:4YrKBkKSVeqDamzBPWVnSJ"
    },
    {
      "external_urls": {
        "spotify": "https://open.spotify.com/artist/5wwneIFdawNgQ7GvKK29Z3"
      },
      "followers": {
        "href": null,
        "total": 203318
      },
      "genres": [
        "big room",
        "deep big room",
        "edm",
        "electro house",
        "house",
        "pop edm",
        "progressive electro house",
        "progressive house",
        "tropical house"
      ],
      "href": "https://api.spotify.com/v1/artists/5wwneIFdawNgQ7GvKK29Z3",
      "id": "5wwneIFdawNgQ7GvKK29Z3",
      "images": [
        {
          "height": 640,
          "url": "https://i.scdn.co/image/a0c22e730cddd327e962433a143a7bd2e394b969",
          "width": 640
        },
        {
          "height": 320,
          "url": "https://i.scdn.co/image/a0264c2543429d002ad55d525ddd07ee6b228e11",
          "width": 320
        },
        {
          "height": 160,
          "url": "https://i.scdn.co/image/129267529c580dbaf76f940dee58dbe27104ab67",
          "width": 160
        }
      ],
      "name": "Lucas & Steve",
      "popularity": 71,
      "type": "artist",
      "uri": "spotify:artist:5wwneIFdawNgQ7GvKK29Z3"
    },
    {
      "external_urls": {
        "spotify": "https://open.spotify.com/artist/60d24wfXkVzDSfLS6hyCjZ"
      },
      "followers": {
        "href": null,
        "total": 9384997
      },
      "genres": [
        "big room",
        "edm",
        "pop",
        "progressive house",
        "tropical house"
      ],
      "href": "https://api.spotify.com/v1/artists/60d24wfXkVzDSfLS6hyCjZ",
      "id": "60d24wfXkVzDSfLS6hyCjZ",
      "images": [
        {
          "height": 640,
          "url": "https://i.scdn.co/image/990f17c31b1cb4b4b2bc7b3d4780e2c9fd3a846a",
          "width": 640
        },
        {
          "height": 320,
          "url": "https://i.scdn.co/image/80db1d349a07da1cdc4ef0ffa20deb08c4faa5e0",
          "width": 320
        },
        {
          "height": 160,
          "url": "https://i.scdn.co/image/c0dc129d8a886a2c9bf487b826c3614a6630fb9c",
          "width": 160
        }
      ],
      "name": "Martin Garrix",
      "popularity": 86,
      "type": "artist",
      "uri": "spotify:artist:60d24wfXkVzDSfLS6hyCjZ"
    },
    {
      "external_urls": {
        "spotify": "https://open.spotify.com/artist/1PXHzxRDiLnjqNrRn2Xbsa"
      },
      "followers": {
        "href": null,
        "total": 259143
      },
      "genres": [
        "acid house",
        "alternative dance",
        "big beat",
        "electronic",
        "trip hop"
      ],
      "href": "https://api.spotify.com/v1/artists/1PXHzxRDiLnjqNrRn2Xbsa",
      "id": "1PXHzxRDiLnjqNrRn2Xbsa",
      "images": [
        {
          "height": 640,
          "url": "https://i.scdn.co/image/be59a52eaa8f103ccb684a7471cacf56bc6db6c8",
          "width": 640
        },
        {
          "height": 320,
          "url": "https://i.scdn.co/image/6fd534efc20f8a116dfd0e9487a45178fc98cd36",
          "width": 320
        },
        {
          "height": 160,
          "url": "https://i.scdn.co/image/e85612503078797e6c12564431d48c3ac84558ae",
          "width": 160
        }
      ],
      "name": "Underworld",
      "popularity": 59,
      "type": "artist",
      "uri": "spotify:artist:1PXHzxRDiLnjqNrRn2Xbsa"
    }
  ],
  "total": 26,
  "limit": 20,
  "offset": 0,
  "previous": null,
  "href": "https://api.spotify.com/v1/me/top/artists?time_range=short_term",
  "next": "https://api.spotify.com/v1/me/top/artists?limit=20&offset=20&time_range=short_term"
}